[
  {
    "description": "Add support for EXTRA_PARAMETERS variable. It allows to pass all other supported create/update stack parameters.",
    "type": "minor"
  },
  {
    "description": "Add support for IMPORT_COMPLETE status.",
    "type": "patch"
  },
  {
    "description": "Add support for ROLE_ARN variable.",
    "type": "minor"
  }
]